{
  "/api/generate-products": {
    "controller": "App\\Controller\\AdminController",
    "action": "generateProductsAction",
    "method": "POST"
  },
  "/api/products": {
    "controller": "App\\Controller\\ProductController",
    "action": "listAction",
    "method": "GET"
  },
  "/api/orders": {
    "controller": "App\\Controller\\OrderController",
    "action": "createAction",
    "method": "POST"
  },
  "/api/orders/pay": {
    "controller": "App\\Controller\\OrderController",
    "action": "payAction",
    "method": "PUT"
  }
}